%YAML 1.1
%TAG !u! tag:unity3d.com,2011:
--- !u!114 &11400000
MonoBehaviour:
  m_ObjectHideFlags: 0
  m_CorrespondingSourceObject: {fileID: 0}
  m_PrefabInstance: {fileID: 0}
  m_PrefabAsset: {fileID: 0}
  m_GameObject: {fileID: 0}
  m_Enabled: 1
  m_EditorHideFlags: 0
  m_Script: {fileID: 11500000, guid: 4605ed5f562e77545aeacf1b3c8cd6da, type: 3}
  m_Name: Fox
  m_EditorClassIdentifier: 
  name: Fox
  description: Small predator. Quite adept and killing things its size or smaller
    on the ground.
  sightRadius: 4
  maxEnergy: 10
  maxActions: 2
  energyRate: -1
  isPlant: 0
  alwaysVisible: 0
  maxHealth: 3
  size: 3
  abilities:
  - {fileID: 11400000, guid: cecd844c06130d540adbb8f09dc7a63c, type: 2}
  - {fileID: 11400000, guid: baef794f279cd934e92a3b275772b6a5, type: 2}
  - {fileID: 11400000, guid: 04acfd8ceb2c7b641ab582b3e5eae3de, type: 2}
  - {fileID: 11400000, guid: 1afdd4c5483dde345a9ff6076c912670, type: 2}
  - {fileID: 11400000, guid: 55a3ef0d7ad2a4c468caacd85797e241, type: 2}
  worldPrefab: {fileID: 3001911786464999323, guid: 370862a897b6d415f9ee9eabb5d059b1,
    type: 3}
  worldMaterial: {fileID: 0}
