%YAML 1.1
%TAG !u! tag:unity3d.com,2011:
--- !u!114 &11400000
MonoBehaviour:
  m_ObjectHideFlags: 0
  m_CorrespondingSourceObject: {fileID: 0}
  m_PrefabInstance: {fileID: 0}
  m_PrefabAsset: {fileID: 0}
  m_GameObject: {fileID: 0}
  m_Enabled: 1
  m_EditorHideFlags: 0
  m_Script: {fileID: 11500000, guid: 4605ed5f562e77545aeacf1b3c8cd6da, type: 3}
  m_Name: TestUnit
  m_EditorClassIdentifier: 
  name: Test
  description: Wouldn't you agree, Jean Pierre Polnareff?
  sightRadius: 3
  maxEnergy: 15
  maxActions: 2
  energyRate: 5
  isPlant: 0
  alwaysVisible: 0
  maxHealth: 2
  size: 3
  abilities:
  - {fileID: 11400000, guid: f6c3caef57b708243936400370ab43ee, type: 2}
  - {fileID: 11400000, guid: 4a271e292933bbe4dafe3deb898e8043, type: 2}
  - {fileID: 11400000, guid: 2a9ba44f68a26184aa9ec08ed7f7402b, type: 2}
  - {fileID: 11400000, guid: 04776ba7ea14eee46ad8049434c1fbb9, type: 2}
  - {fileID: 11400000, guid: 15fb8f876b4d4f540ba4ed81e1f1d46d, type: 2}
  - {fileID: 11400000, guid: 6b7691abb874cb64685f1d0911822096, type: 2}
  worldPrefab: {fileID: 3001911786464999323, guid: 370862a897b6d415f9ee9eabb5d059b1,
    type: 3}
  worldMaterial: {fileID: 0}
