%YAML 1.1
%TAG !u! tag:unity3d.com,2011:
--- !u!114 &11400000
MonoBehaviour:
  m_ObjectHideFlags: 0
  m_CorrespondingSourceObject: {fileID: 0}
  m_PrefabInstance: {fileID: 0}
  m_PrefabAsset: {fileID: 0}
  m_GameObject: {fileID: 0}
  m_Enabled: 1
  m_EditorHideFlags: 0
  m_Script: {fileID: 11500000, guid: dbf66953314a4b74a8ac078627eaf79d, type: 3}
  m_Name: Dash
  m_EditorClassIdentifier: 
  name: Move
  description: Moves the unit to a square within range
  icon: {fileID: 8623927322399083688, guid: 7e69d13c7387a42928089ba90a88cc82, type: 3}
  unitEnergyCost: 3
  playerEnergyCost: 0
  selectionColor: 1
  sound: {fileID: 8300000, guid: 3ef2ce37eca924a58b8935427ab99a1d, type: 3}
  range: 5
  timePerSquare: 0.2
