%YAML 1.1
%TAG !u! tag:unity3d.com,2011:
--- !u!114 &11400000
MonoBehaviour:
  m_ObjectHideFlags: 0
  m_CorrespondingSourceObject: {fileID: 0}
  m_PrefabInstance: {fileID: 0}
  m_PrefabAsset: {fileID: 0}
  m_GameObject: {fileID: 0}
  m_Enabled: 1
  m_EditorHideFlags: 0
  m_Script: {fileID: 11500000, guid: b1c43a85f850eff48a8b62e16306c585, type: 3}
  m_Name: PredatorEat
  m_EditorClassIdentifier: 
  name: Eat
  description: Eats any dead prey on this tile to gain energy.
  icon: {fileID: 7441194390028336768, guid: 7e69d13c7387a42928089ba90a88cc82, type: 3}
  unitEnergyCost: 0
  playerEnergyCost: 0
  selectionColor: 0
  sound: {fileID: 8300000, guid: 8156a8fa48d76454c8c8dae9e89782ea, type: 3}
  eatTime: 1
  eatDamage: 1
  recoveryAmount: 5
  prey:
  - {fileID: 11400000, guid: 1f41e6021c4c24b4f9675c47e73b9a9a, type: 2}
  - {fileID: 11400000, guid: 57ece49c3e9d90a46b301429f8191512, type: 2}
  - {fileID: 11400000, guid: de822abe3e214b14a82c3592d96816c6, type: 2}
