%YAML 1.1
%TAG !u! tag:unity3d.com,2011:
--- !u!114 &11400000
MonoBehaviour:
  m_ObjectHideFlags: 0
  m_CorrespondingSourceObject: {fileID: 0}
  m_PrefabInstance: {fileID: 0}
  m_PrefabAsset: {fileID: 0}
  m_GameObject: {fileID: 0}
  m_Enabled: 1
  m_EditorHideFlags: 0
  m_Script: {fileID: 11500000, guid: fa1a433823b80a54c885f9623f60187c, type: 3}
  m_Name: TestAmbush
  m_EditorClassIdentifier: 
  name: Ambush
  description: Attack any unit that crosses your path this turn.
  icon: {fileID: 1464146676289309714, guid: 7e69d13c7387a42928089ba90a88cc82, type: 3}
  unitEnergyCost: 2
  playerEnergyCost: 0
  selectionColor: 0
  sound: {fileID: 8300000, guid: ca1468d4f8cdb4d0a90ad163701cfbf4, type: 3}
  range: 0
  timePerSquare: 0
  damage: 0
  sizeSuccessMatrix:
  - 0
  - 0
  - 0
  - 0
  - 0
  - 0
  - 0
  attackTime: 0
