%YAML 1.1
%TAG !u! tag:unity3d.com,2011:
--- !u!114 &11400000
MonoBehaviour:
  m_ObjectHideFlags: 0
  m_CorrespondingSourceObject: {fileID: 0}
  m_PrefabInstance: {fileID: 0}
  m_PrefabAsset: {fileID: 0}
  m_GameObject: {fileID: 0}
  m_Enabled: 1
  m_EditorHideFlags: 0
  m_Script: {fileID: 11500000, guid: 158471e62592acc4f96eb31416deb53d, type: 3}
  m_Name: TestAttack
  m_EditorClassIdentifier: 
  name: Attack
  description: Attack another animal. Survival of the fittest.
  icon: {fileID: 6837264152460545285, guid: 7e69d13c7387a42928089ba90a88cc82, type: 3}
  unitEnergyCost: 2
  playerEnergyCost: 0
  selectionColor: 0
  sound: {fileID: 8300000, guid: ca1468d4f8cdb4d0a90ad163701cfbf4, type: 3}
  range: 3
  timePerSquare: 0.5
  damage: 10
  sizeSuccessMatrix:
  - 1
  - 1
  - 1
  - 1
  - 1
  - 1
  - 1
  attackTime: 1
