%YAML 1.1
%TAG !u! tag:unity3d.com,2011:
--- !u!114 &11400000
MonoBehaviour:
  m_ObjectHideFlags: 0
  m_CorrespondingSourceObject: {fileID: 0}
  m_PrefabInstance: {fileID: 0}
  m_PrefabAsset: {fileID: 0}
  m_GameObject: {fileID: 0}
  m_Enabled: 1
  m_EditorHideFlags: 0
  m_Script: {fileID: 11500000, guid: f3ceb24b3fe7d584ca1e5a5bebe9892f, type: 3}
  m_Name: ProduceFox
  m_EditorClassIdentifier: 
  name: Grow Grass
  description: Grow a patch of grass at the selected point.
  icon: {fileID: -704751209972884524, guid: 7e69d13c7387a42928089ba90a88cc82, type: 3}
  unitEnergyCost: 5
  playerEnergyCost: 200
  selectionColor: 0
  sound: {fileID: 8300000, guid: c8d09054f3a1e417dab1d2a45cea00da, type: 3}
  producedUnit: {fileID: 11400000, guid: 1f41e6021c4c24b4f9675c47e73b9a9a, type: 2}
  productionRange: 1
  minRange: 0
  replacesThisUnit: 0
