%YAML 1.1
%TAG !u! tag:unity3d.com,2011:
--- !u!21 &2100000
Material:
  serializedVersion: 6
  m_ObjectHideFlags: 0
  m_CorrespondingSourceObject: {fileID: 0}
  m_PrefabInstance: {fileID: 0}
  m_PrefabAsset: {fileID: 0}
  m_Name: IL3DN_Plant_Grass_03
  m_Shader: {fileID: 4800000, guid: 933532a4fcc9baf4fa0491de14d08ed7, type: 3}
  m_ShaderKeywords: _EMISSION
  m_LightmapFlags: 2
  m_EnableInstancingVariants: 1
  m_DoubleSidedGI: 0
  m_CustomRenderQueue: 3050
  stringTagMap:
    RenderType: Transparent
  disabledShaderPasses:
  - SHADOWCASTER
  m_SavedProperties:
    serializedVersion: 3
    m_TexEnvs:
    - NoiseTextureFloat:
        m_Texture: {fileID: 2800000, guid: e5055e0d246bd1047bdb28057a93753c, type: 3}
        m_Scale: {x: 1, y: 1}
        m_Offset: {x: 0, y: 0}
    - _BaseMap:
        m_Texture: {fileID: 2800000, guid: 3ab525614e685014da4ff51a15e353f9, type: 3}
        m_Scale: {x: 1, y: 1}
        m_Offset: {x: 0, y: 0}
    - _BumpMap:
        m_Texture: {fileID: 0}
        m_Scale: {x: 1, y: 1}
        m_Offset: {x: 0, y: 0}
    - _DetailAlbedoMap:
        m_Texture: {fileID: 0}
        m_Scale: {x: 1, y: 1}
        m_Offset: {x: 0, y: 0}
    - _DetailMask:
        m_Texture: {fileID: 0}
        m_Scale: {x: 1, y: 1}
        m_Offset: {x: 0, y: 0}
    - _DetailNormalMap:
        m_Texture: {fileID: 0}
        m_Scale: {x: 1, y: 1}
        m_Offset: {x: 0, y: 0}
    - _DetailTex:
        m_Texture: {fileID: 0}
        m_Scale: {x: 1, y: 1}
        m_Offset: {x: 0, y: 0}
    - _EmissionMap:
        m_Texture: {fileID: 0}
        m_Scale: {x: 1, y: 1}
        m_Offset: {x: 0, y: 0}
    - _GlossMap:
        m_Texture: {fileID: 0}
        m_Scale: {x: 1, y: 1}
        m_Offset: {x: 0, y: 0}
    - _MainTex:
        m_Texture: {fileID: 2800000, guid: 3ab525614e685014da4ff51a15e353f9, type: 3}
        m_Scale: {x: 1, y: 1}
        m_Offset: {x: 0, y: 0}
    - _MetallicGlossMap:
        m_Texture: {fileID: 0}
        m_Scale: {x: 1, y: 1}
        m_Offset: {x: 0, y: 0}
    - _OcclusionMap:
        m_Texture: {fileID: 0}
        m_Scale: {x: 1, y: 1}
        m_Offset: {x: 0, y: 0}
    - _ParallaxMap:
        m_Texture: {fileID: 0}
        m_Scale: {x: 1, y: 1}
        m_Offset: {x: 0, y: 0}
    - _ShadowOffset:
        m_Texture: {fileID: 0}
        m_Scale: {x: 1, y: 1}
        m_Offset: {x: 0, y: 0}
    - _SpecGlossMap:
        m_Texture: {fileID: 0}
        m_Scale: {x: 1, y: 1}
        m_Offset: {x: 0, y: 0}
    - _TextureSample0:
        m_Texture: {fileID: 0}
        m_Scale: {x: 1, y: 1}
        m_Offset: {x: 0, y: 0}
    - _TextureSample1:
        m_Texture: {fileID: 0}
        m_Scale: {x: 1, y: 1}
        m_Offset: {x: 0, y: 0}
    - _TranslucencyMap:
        m_Texture: {fileID: 0}
        m_Scale: {x: 1, y: 1}
        m_Offset: {x: 0, y: 0}
    - _texcoord:
        m_Texture: {fileID: 0}
        m_Scale: {x: 1, y: 1}
        m_Offset: {x: 0, y: 0}
    m_Floats:
    - GrassWiggleFloat: 1
    - WindSpeedFloat: 0.1
    - WindStrenghtFloat: 0.8
    - WindTurbulenceFloat: 0.4
    - _AlphaClip: 0
    - _AlphaCutoff: 0.5
    - _Bend: 1
    - _BendStrenght: 1
    - _Blend: 0
    - _BumpScale: 1
    - _Cull: 0
    - _Cutoff: 0.5
    - _DetailNormalMapScale: 1
    - _DirectionNoise: 1
    - _DirectionSpeed: 10
    - _DstBlend: 10
    - _EnvironmentReflections: 1
    - _Float0: 1
    - _Float1: 10
    - _GlossMapScale: 1
    - _Glossiness: 0
    - _GlossyReflections: 1
    - _MaxWindStrength: 0.35
    - _Metallic: 0
    - _Mode: 0
    - _OcclusionStrength: 1
    - _Parallax: 0.02
    - _QueueOffset: 0
    - _ReceiveShadows: 1
    - _Rotation: 0.6
    - _Scale: 0.3
    - _ShadowStrength: 0.5
    - _Shininess: 0.15
    - _Smoothness: 0
    - _SmoothnessTextureChannel: 0
    - _Snow: 0
    - _Snow1: 0
    - _SnowSize: 0
    - _SnowSizeFloat: 1
    - _SpecularHighlights: 1
    - _Speed: 10
    - _SquashAmount: 1
    - _SrcBlend: 5
    - _Strenght: 0.5
    - _StrenghtNoise: 1
    - _Surface: 1
    - _ToggleSwitch0: 0
    - _TransAmbient: 1
    - _TransDirect: 1
    - _TransNormalDistortion: 0.1
    - _TransScattering: 2
    - _TransShadow: 1
    - _Translucency: 1
    - _TranslucencyViewDependency: 0
    - _UVSec: 0
    - _Wiggle: 1
    - _WiggleRandomisation: 0
    - _WiggleStrenght: 0.5
    - _Wind: 1
    - _WindAmplitudeMultiplier: 1
    - _WindDirectionSpeed: 5
    - _WindQuality: 4
    - _WindStrenght: 1
    - _WindSwinging: 0.5
    - _WorkflowMode: 1
    - _ZWrite: 0
    - __dirty: 1
    m_Colors:
    - _BaseColor: {r: 0.6509434, g: 0.4200489, b: 0.26713225, a: 1}
    - _Color: {r: 0.6509434, g: 0.42004892, b: 0.26713228, a: 1}
    - _Color0: {r: 1, g: 0.9847094, b: 0, a: 1}
    - _Color1: {r: 1, g: 1, b: 1, a: 0}
    - _EmissionColor: {r: 0.26249582, g: 0.2924528, b: 0.09242612, a: 0}
    - _HueVariation: {r: 1, g: 1, b: 1, a: 1}
    - _SnowColor: {r: 1, g: 1, b: 1, a: 0}
    - _SpecColor: {r: 0.19999996, g: 0.19999996, b: 0.19999996, a: 1}
    - _Speed: {r: -0, g: 10, b: 0, a: 0}
    - _TranslucencyColor: {r: 0.72321427, g: 1, b: 0, a: 1}
    - _TreeInstanceColor: {r: 1, g: 1, b: 1, a: 1}
    - _TreeInstanceScale: {r: 1, g: 1, b: 1, a: 1}
--- !u!114 &859376655785476564
MonoBehaviour:
  m_ObjectHideFlags: 11
  m_CorrespondingSourceObject: {fileID: 0}
  m_PrefabInstance: {fileID: 0}
  m_PrefabAsset: {fileID: 0}
  m_GameObject: {fileID: 0}
  m_Enabled: 1
  m_EditorHideFlags: 0
  m_Script: {fileID: 11500000, guid: d0353a89b1f911e48b9e16bdc9f2e058, type: 3}
  m_Name: 
  m_EditorClassIdentifier: 
  version: 1
